{
    "sound": "atmosfera:day",
    "default_volume": 100,
    "default_subtitle": true,
    "context": {
        "shape": "hemisphere",
        "size": "large",
        "direction": "up"
    },
    "modifiers": [
        {
            "type": "submerged_in",
            "modifies": "pitch",
            "factor": 0.5,
            "fluids": [
                "minecraft:lava",
                "minecraft:water"
            ]
        }
    ],
    "conditions": {
        "percent_sky_visible": {
            "more": 0.4
        },
        "is_daytime": true
    }
}
