{
    "sound": "atmosfera:grassland",
    "default_volume": 100,
    "context": {
        "shape": "hemisphere",
        "size": "small",
        "direction": "down"
    },
    "modifiers": [
        {
            "type": "submerged_in",
            "modifies": "pitch",
            "factor": 0.5,
            "fluids": [
                "minecraft:lava",
                "minecraft:water"
            ]
        }
    ],
    "conditions": {
        "dimension": "minecraft:overworld",
        "percent_biome": [
            {
                "items": [
                    "minecraft:plains",
                    "minecraft:savanna",
                    "minecraft:savanna_plateau",
                    "minecraft:shattered_savanna",
                    "minecraft:shattered_savanna_plateau",
                    "minecraft:sunflower_plains",
                    "byg:allium_fields",
                    "byg:amaranth_fields",
                    "byg:araucaria_savanna",
                    "byg:autumnal_valley",
                    "byg:baobab_savanna",
                    "byg:cika_mountains",
                    "byg:cika_woods",
                    "byg:cika_wooded_mountains",
                    "byg:enchanted_grove",
                    "byg:flowering_enchanted_grove",
                    "byg:flowering_grove",
                    "byg:flowering_meadow",
                    "byg:grassland_plateau",
                    "byg:grove",
                    "byg:meadow",
                    "byg:oasis",
                    "byg:orchard",
                    "byg:prairie",
                    "byg:prairie_clearing",
                    "byg:red_rock_highlands",
                    "byg:red_rock_lowlands",
                    "byg:red_rock_mountains",
                    "byg:rose_fields",
                    "byg:sierra_range",
                    "byg:sierra_valley",
                    "byg:wooded_grassland_plateau",
                    "byg:wooded_meadow",
                    "byg:wooded_red_rock_mountains",
                    "ecotones:blessed_springs",
                    "ecotones:bluebell_wood",
                    "ecotones:bluebell_wood_clearing",
                    "ecotones:bluebell_wood_flats",
                    "ecotones:bluebell_wood_hilly",
                    "ecotones:bluebell_wood_mountainous",
                    "ecotones:clover_fields",
                    "ecotones:clover_flats",
                    "ecotones:clover_hills",
                    "ecotones:clover_shrubs",
                    "ecotones:clover_thicket",
                    "ecotones:cool_steppe",
                    "ecotones:dry_savanna",
                    "ecotones:dry_savanna_hilly",
                    "ecotones:dry_savanna_mountainous",
                    "ecotones:dry_savanna_thicket",
                    "ecotones:dry_steppe",
                    "ecotones:dry_steppe_hilly",
                    "ecotones:dry_steppe_mountainous",
                    "ecotones:fertile_valley",
                    "ecotones:fertile_valley_clearing",
                    "ecotones:fertile_valley_hilly",
                    "ecotones:fertile_valley_mountainous",
                    "ecotones:fertile_valley_thicket",
                    "ecotones:flooded_savannah",
                    "ecotones:flower_prairie",
                    "ecotones:flower_prairie_hilly",
                    "ecotones:flower_prairie_mountainous",
                    "ecotones:hot_springs",
                    "ecotones:lush_savannah",
                    "ecotones:moor",
                    "ecotones:moor_hilly",
                    "ecotones:moor_mountainous",
                    "ecotones:oasis",
                    "ecotones:prairie",
                    "ecotones:rose_field",
                    "ecotones:sunflower_plains",
                    "ecotones:sunflower_plains_hilly",
                    "ecotones:sunflower_plains_mountainous",
                    "ecotones:steppe",
                    "ecotones:temperate_grassland",
                    "ecotones:temperate_grassland_hilly",
                    "ecotones:temperate_grassland_mountainous",
                    "ecotones:tropical_grassland",
                    "terrestria:oasis",
                    "terrestria:outback_bushland",
                    "traverse:arid_highlands",
                    "traverse:meadow",
                    "traverse:plains_plateau",
                    "traverse:rolling_hills",
                    "vanillaplusbiomes:flower_field",
                    "vanillaplusbiomes:lowlands",
                    "vanillaplusbiomes:oasis",
                    "vanillaplusbiomes:plains_hills",
                    "vanillaplusbiomes:plains_plateau",
                    "vanillaplusbiomes:pumpkin_patch",
                    "vanillaplusbiomes:rocky_plains",
                    "vanillaplusbiomes:savanna_scrub",
                    "vanillaplusbiomes:savanna_thicket"
                ],
                "more": 0.1
            }
        ],
        "distance_from_ground": {
            "less": 20
        },
        "percent_sky_visible": {
            "more": 0.4
        }
    }
}
